{
  "root": "apps/simple-app-ngrx-e2e",
  "sourceRoot": "apps/simple-app-ngrx-e2e/src",
  "projectType": "application",
  "targets": {
    "e2e": {
      "executor": "@nrwl/cypress:cypress",
      "options": {
        "cypressConfig": "apps/simple-app-ngrx-e2e/cypress.json",
        "devServerTarget": "simple-app-ngrx:serve:development"
      },
      "configurations": {
        "production": {
          "devServerTarget": "simple-app-ngrx:serve:production"
        }
      }
    },
    "lint": {
      "executor": "@nrwl/linter:eslint",
      "outputs": [
        "{options.outputFile}"
      ],
      "options": {
        "lintFilePatterns": [
          "apps/simple-app-ngrx-e2e/**/*.{js,ts}"
        ]
      }
    }
  },
  "tags": [],
  "implicitDependencies": [
    "simple-app-ngrx"
  ]
}
